Análisis Sentimiento
…
# Creamos el dataset "tuits" con los datos descargados

tuits <- read.csv("tuits_candidatos.csv", stringsAsFactors = F, fileEncoding = "latin1") %>% 
  as_tibble()

Nuestros datos lucen así:

# Luego visualizamos como se ven los datos

tuits

## # A tibble: 2,660 × 4
##    status_id created_at       screen_name   text                                
##        <dbl> <chr>            <chr>         <chr>                               
##  1   7.30e17 09/05/2016 03:03 lopezobrador_ "Proceso habla de vilezas de EPN-Ca…
##  2   7.30e17 10/05/2016 02:06 lopezobrador_ "MORENA llegó como bendición justo …
##  3   7.30e17 10/05/2016 12:00 lopezobrador_ "Muchas felicidades a las madres, t…
##  4   7.31e17 12/05/2016 04:46 lopezobrador_ "En Chihuahua, Javier Félix Muñoz, …
##  5   7.31e17 13/05/2016 02:54 lopezobrador_ "Están desatados priístas, panistas…
##  6   7.31e17 13/05/2016 19:13 lopezobrador_ "No sé a ustedes, pero a mí lo que …
##  7   7.32e17 15/05/2016 03:27 lopezobrador_ "Luego de la explosión en Pajaritos…
##  8   7.32e17 16/05/2016 02:20 lopezobrador_ "Hoy 15 de mayo nuestro sincero res…
##  9   7.32e17 17/05/2016 02:56 lopezobrador_ "El periódico Financial Times ningu…
## 10   7.33e17 18/05/2016 17:57 lopezobrador_ "Sandra Ávila Beltrán, conocida com…
## # ℹ 2,650 more rows
…
De nuevo usamos la función read.csv() para importar los datos.

# Creamos el dataset "afinn" con los datos descargados

afinn <- read.csv("lexico_afinn.en.es.csv", stringsAsFactors = F, fileEncoding = "latin1") %>% 
  as_tibble()

Este léxico luce así:

# Luego visualizamos como se ven los datos

afinn

## # A tibble: 2,476 × 3
##    Palabra     Puntuacion Word      
##    <chr>            <int> <chr>     
##  1 a bordo              1 aboard    
##  2 abandona            -2 abandons  
##  3 abandonado          -2 abandoned 
##  4 abandonar           -2 abandon   
##  5 abatido             -2 dejected  
##  6 abatido             -3 despondent
##  7 aborrece            -3 abhors    
##  8 aborrecer           -3 abhor     
##  9 aborrecible         -3 abhorrent 
## 10 aborrecido          -3 abhorred  
## # ℹ 2,466 more rows
…
## # A tibble: 1 × 2
##   Palabra Puntuacion
##   <chr>        <dbl>
## 1 abatido       -2.5

El léxico en Español ajustado para tener sólo un puntaje por palabra
luce así:

# Luego visualizamos como se ven los datos con el ajuste realizado para eliminar palabras duplicadas y unificar puntuación para una misma palabra en español

afinn

## # A tibble: 2,143 × 2
##    Palabra      Puntuacion
##    <chr>             <dbl>
##  1 ""                   -2
##  2 "Angers"             -3
##  3 "Ay"                 -1
##  4 "Bamboozles"         -2
##  5 "Bastardo"           -5
##  6 "Beso"                2
##  7 "Bienvenido"          2
##  8 "Cabron"             -4
##  9 "Cabrón"             -3
## 10 "Caso omiso"         -2
## # ℹ 2,133 more rows
…
